{
  "type": "service_account",
  "project_id": "asked100people",
  "private_key_id": "1e080adb40683c73a4a8120e3b7c9cbf0337cd29",
  "private_key": "-----BEGIN PRIVATE KEY-----\nMIIEvAIBADANBgkqhkiG9w0BAQEFAASCBKYwggSiAgEAAoIBAQCXVVFumznCTA6+\ni+B8jPtW0exPKSvoqSKFQblXwgAQk0scMcebvvgJjif3yWYqRL3w/X9DNUvd1a3Z\nylyrikRGWRVgQD7i+FTHpV90FRvaOY2U7oAYrpyBWrQ/A3nvr1xW9lLPYkMG8vgc\n7n37EKOZihKeXbW9yrQjFYyjf1vx7mB75W48V/JsGqSqXJODb6TK0HxOEDdGAacd\nFTo0SooFiPpK0hHgr1aM0wKBWt3MlBnP8i8kwfC3CCV33zZvzroQZbCVgDiUYotT\nn3zQXhPqTFGBEqH3t3EUhrw9qBo0PkksFbscFz/3sT1bcymFs0uhLTWCFBSKV8rA\nKsDi/EBXAgMBAAECggEAEjpuopoD7QloRT9n/NimdaC3jBlzdoTY6aAvCQkPJO/4\n/h5o4rOwAMakvc3+hlzdXCfMqnXC+6d/V1puqyLucmLMlllmucQbwiiDROI+Bp0k\nFqpbt51gsJwSVfy/NUW0I61r8Brv4+hkRmfbuOAaNKZS88xp1cCSzh8MX605j/xt\nERN9nGlXm+m2cqCNAIWqq5eXucFyrEv8ixDkbdTfDMJcQYnEwIWrJbcycqnNjFLj\nYDMSjvWwnyAnK6A2R7a2lSgT1QhAp9ZqlniqAbs0nrsxgZKHyeV+2uDzqNp+M/97\n9U/7rW7nMdkWza/Fg3mPk6Ek766plN+saQ/+RHubMQKBgQDSYMU8n1Pe1P6OWsp6\n37xbtlaizk87r9bIXpTklpif/1tIRMWRjtDo0qQyHqSO3aay5czXp5ERIi10AnOi\n2onwuWIk2TEEj7GsQ5wUR7uQRR+E5RDP+B9baZYTRaoV8QghJ+6t/fH9fKF9oIMU\nomwQgjybZebeSXfslxCLo/AKmwKBgQC4JqcUPDb9j+6sg57SGj3Z714tQO6QpEkR\nPEguveNO9RMijtYjwYsHuTLlFIxm/fXoiISYeiJsXV/XBPlctuYEbleBthSD/K2t\n72nOSQiG00vLWix0Ig7AwTFv5hYLk2NMxAIt02ig06Z2BlnDcugthtI6vW4YXkeq\ngjTB2JLu9QKBgHvsryLHw/L2SsD2cGGzG9R2c1BR8VB6gy3isRh6MYvGMzI9+JeG\npj8PndM8Q7k4jfLB9Ulvlr+d/2Jf81gSHcFkopCMNBi4wHN2HCHCI5WXcjqpaJ7p\nTSde6h2OIuPr6NsHF8z8Uyj72nETNUPZbYjH/wWXIEj+xBrk3cU0G7lTAoGAOcBd\ne5oawNCH0HCCuW9jYFqSVWzcpF3xUEdwd8AzbkqrkpXrEFGdUXHCRVd5ZL9WhHNz\n6gG7k/KAoQU9UtdFMbSNGu/IZVA0A61mqDv9QZM4XPDNqioYKFkuMOKenUi+xo9e\nA5MeZ/mYZcE+G26I4+Y5PhS0V04R+aZV90j9Y5UCgYB2hxF4P9WUdHzX2jnpD8hc\nnr/4XNEmv8ujrk2Duq4jzXOkgv+PSx+8dBtvrzf5Wd6Y+BLyH85kcqAuRgxcCrP3\nyqTmiIAir2s19UbLs2BXGhB90WXGM4Q1N+OPoYhxyJEXYFBmK2xVYcFAMpwUNg+u\nzvbrYQaNXmt1EAcjCW6oRA==\n-----END PRIVATE KEY-----\n",
  "client_email": "firebase-adminsdk-vzdzm@asked100people.iam.gserviceaccount.com",
  "client_id": "100280585888227083090",
  "auth_uri": "https://accounts.google.com/o/oauth2/auth",
  "token_uri": "https://oauth2.googleapis.com/token",
  "auth_provider_x509_cert_url": "https://www.googleapis.com/oauth2/v1/certs",
  "client_x509_cert_url": "https://www.googleapis.com/robot/v1/metadata/x509/firebase-adminsdk-vzdzm%40asked100people.iam.gserviceaccount.com"
}
